{
  "project_info": {
    "project_number": "775073315023",
    "firebase_url": "https://car-fix-on-demand.firebaseio.com",
    "project_id": "car-fix-on-demand",
    "storage_bucket": "car-fix-on-demand.appspot.com"
  },
  "client": [
    {
      "client_info": {
        "mobilesdk_app_id": "1:775073315023:android:4edf0cf20e28a814",
        "android_client_info": {
          "package_name": "com.gitlab.lauropereira.carfixondemand"
        }
      },
      "oauth_client": [
        {
          "client_id": "775073315023-9d8r46pq6pn8qq3vli3gr1db67t0qa9g.apps.googleusercontent.com",
          "client_type": 1,
          "android_info": {
            "package_name": "com.gitlab.lauropereira.carfixondemand",
            "certificate_hash": "31235bbd88910a3232e167930a8772e3f7804ad9"
          }
        },
        {
          "client_id": "775073315023-d70mvvpr660maenk9hkp1qne9jb2vqnp.apps.googleusercontent.com",
          "client_type": 3
        }
      ],
      "api_key": [
        {
          "current_key": "AIzaSyC7GPSESWiBIiVRt69uyyw5B3JMZoWTX34"
        }
      ],
      "services": {
        "analytics_service": {
          "status": 1
        },
        "appinvite_service": {
          "status": 2,
          "other_platform_oauth_client": [
            {
              "client_id": "775073315023-d70mvvpr660maenk9hkp1qne9jb2vqnp.apps.googleusercontent.com",
              "client_type": 3
            }
          ]
        },
        "ads_service": {
          "status": 2
        }
      }
    }
  ],
  "configuration_version": "1"
}